uuid identifier,name,email,description
Fake0014,Test1,john.doe@whatever.com,Describe your use case here
Fake0015,Test2,jack.doe@whatever.com,Describe your use case here
Fake0016,Test3,jane.doe@whatever.com,Describe your use case here
