[
    "registry_flag:instance--name:indexer_task--framework:generic--tags:['ams', 'cross-encoder/nli-roberta-base', 'default', 'fake', 'zero-shot']--namespace:tilde",
    "registry_flag:instance--name:indexer_task--framework:generic--tags:['ams', 'cross-encoder/nli-roberta-base', 'default', 'zero-shot']--namespace:tilde",
    "registry_flag:instance--name:indexer_task--framework:generic--tags:['cross-encoder/nli-roberta-base', 'default', 'file', 'zero-shot']--namespace:tilde",
    "registry_flag:instance--name:labeler--framework:torch--tags:['cross-encoder/nli-roberta-base', 'zero-shot']--namespace:tilde",
    "registry_flag:instance--name:labeler_classifier_task--framework:generic--tags:['cross-encoder/nli-roberta-base', 'default', 'zero-shot']--namespace:tilde",
    "registry_flag:instance--name:labeler_task--framework:generic--tags:['cross-encoder/nli-roberta-base', 'default', 'zero-shot']--namespace:tilde"
]