Name,Description,Price,Team size,Country,Languages
Quantum Byte,"Dr. Quantum Byte is a leading expert in the intersection of machine learning and computer vision. With a Ph.D. in Computer Science specializing in artificial intelligence, she has dedicated her career to advancing the field through groundbreaking research and innovative applications. Dr. Chen's expertise lies in developing cutting-edge algorithms that enable machines to interpret and understand visual data, pushing the boundaries of what is possible in areas such as image recognition, object detection, and scene understanding. Her work has profound implications across various industries, from healthcare to autonomous vehicles, revolutionizing how we interact with and harness the power of visual information. As a sought-after speaker and thought leader, Dr. Chen continues to inspire and educate the next generation of researchers, shaping the future of machine learning and computer vision.",80,8,Italy,English
Lexi Synth,"Dr. Lexi Synth stands at the forefront of Natural Language Processing (NLP) and Large Language Models (LLMs), wielding a formidable arsenal of linguistic knowledge and computational expertise. With a Ph.D. in Computational Linguistics, Dr. Synth has dedicated her career to unraveling the complexities of human language through the lens of machine learning. Her research delves deep into the development of cutting-edge LLM architectures, exploring innovative approaches to language modeling, text generation, and semantic understanding. Dr. Synth's contributions have paved the way for transformative applications in areas such as chatbots, language translation, and sentiment analysis. As an influential figure in the NLP community, she actively collaborates with industry leaders and academic institutions to push the boundaries of what is achievable in language understanding and generation.",40,1,Greece,"['English', 'Greek', 'Spanish']"
Max Optimo,"Professor Max Optimo is a trailblazer in the fields of optimization and decision support, wielding a formidable blend of mathematical prowess and strategic insight. With a distinguished career spanning decades, Professor Optimo has led groundbreaking research efforts to develop advanced algorithms and methodologies for solving complex optimization problems across diverse domains. His expertise lies in crafting tailored decision support systems that leverage optimization techniques to drive efficiency, minimize costs, and maximize outcomes. From supply chain management to resource allocation, Professor Optimo's contributions have revolutionized how organizations make strategic decisions in the face of uncertainty and limited resources. As a visionary thought leader, he continues to inspire and empower the next generation of researchers and practitioners in the pursuit of optimal solutions to pressing real-world challenges.",78,6,Germany,"['English', 'German']"
Cassandra Mindforge,"Dr. Cassandra Mindforge is a luminary in the fields of knowledge representation and knowledge engineering, possessing a unique blend of theoretical insight and practical ingenuity. With a background in both computer science and cognitive psychology, Dr. Mindforge has dedicated her career to unraveling the complexities of human knowledge and designing intelligent systems that can effectively represent and reason with this knowledge. Her research spans a wide spectrum, from developing ontologies and semantic networks to designing expert systems and knowledge-based inference engines. Dr. Mindforge's contributions have paved the way for transformative applications in areas such as artificial intelligence, information retrieval, and decision support. As a visionary leader in her field, she actively collaborates with interdisciplinary teams to harness the power of knowledge representation for solving some of the most pressing challenges facing society today.",50,,Greece,"['English', 'Greek']"
Victor Algorithmix,"Professor Victor Algorithmix is a leading authority in the convergence of machine learning and optimization, renowned for his groundbreaking contributions at the intersection of these disciplines. Armed with a profound understanding of both theoretical frameworks and practical applications, Professor Algorithmix has dedicated his career to developing novel algorithms and methodologies that leverage the power of machine learning to enhance optimization processes. His research encompasses a wide range of areas, from reinforcement learning-based optimization to evolutionary algorithms and metaheuristics. Professor Algorithmix's insights have catalyzed advancements in fields such as logistics, finance, and resource allocation, where optimizing complex systems is paramount. As a visionary thought leader, he continues to drive innovation, inspiring interdisciplinary collaboration and shaping the future of intelligent decision-making.",100,6,Italy,"['English', 'Italian']"
